[gd_scene load_steps=4 format=2]

[ext_resource path="res://Fonts/Wallpoet-Regular.ttf" type="DynamicFontData" id=1]

[sub_resource type="DynamicFont" id=1]
font_data = ExtResource( 1 )

[sub_resource type="Animation" id=2]
length = 5.0
tracks/0/type = "bezier"
tracks/0/path = NodePath("Label:rect_position:x")
tracks/0/interp = 1
tracks/0/loop_wrap = true
tracks/0/imported = false
tracks/0/enabled = true
tracks/0/keys = {
"points": PoolRealArray( 30, -0.25, 0, 0.25, 0 ),
"times": PoolRealArray( 0 )
}
tracks/1/type = "bezier"
tracks/1/path = NodePath("Label:rect_position:y")
tracks/1/interp = 1
tracks/1/loop_wrap = true
tracks/1/imported = false
tracks/1/enabled = true
tracks/1/keys = {
"points": PoolRealArray( 550, -0.25, 0, 0.25, 0, 200, -0.25, 0, 0.25, 0 ),
"times": PoolRealArray( 0, 5 )
}
tracks/2/type = "bezier"
tracks/2/path = NodePath("Label:modulate:r")
tracks/2/interp = 1
tracks/2/loop_wrap = true
tracks/2/imported = false
tracks/2/enabled = true
tracks/2/keys = {
"points": PoolRealArray(  ),
"times": PoolRealArray(  )
}
tracks/3/type = "bezier"
tracks/3/path = NodePath("Label:modulate:g")
tracks/3/interp = 1
tracks/3/loop_wrap = true
tracks/3/imported = false
tracks/3/enabled = true
tracks/3/keys = {
"points": PoolRealArray(  ),
"times": PoolRealArray(  )
}
tracks/4/type = "bezier"
tracks/4/path = NodePath("Label:modulate:b")
tracks/4/interp = 1
tracks/4/loop_wrap = true
tracks/4/imported = false
tracks/4/enabled = true
tracks/4/keys = {
"points": PoolRealArray(  ),
"times": PoolRealArray(  )
}
tracks/5/type = "bezier"
tracks/5/path = NodePath("Label:modulate:a")
tracks/5/interp = 1
tracks/5/loop_wrap = true
tracks/5/imported = false
tracks/5/enabled = true
tracks/5/keys = {
"points": PoolRealArray( 1, -0.25, 0, 2.48, -0.135889, -0.274764, -0.25, 0, 0.25, 0 ),
"times": PoolRealArray( 0, 5 )
}
tracks/6/type = "method"
tracks/6/path = NodePath(".")
tracks/6/interp = 1
tracks/6/loop_wrap = true
tracks/6/imported = false
tracks/6/enabled = true
tracks/6/keys = {
"times": PoolRealArray( 5 ),
"transitions": PoolRealArray( 1 ),
"values": [ {
"args": [  ],
"method": "queue_free"
} ]
}

[node name="FeedbackControlMessage" type="Control"]
show_behind_parent = true
anchor_right = 1.0
anchor_bottom = 1.0
mouse_filter = 2
__meta__ = {
"_edit_use_anchors_": false
}

[node name="Label" type="Label" parent="."]
show_behind_parent = true
anchor_top = 1.0
anchor_bottom = 1.0
margin_left = 30.0
margin_top = -50.0
margin_right = 1024.0
margin_bottom = -36.0
custom_fonts/font = SubResource( 1 )
text = "Message"
valign = 2
__meta__ = {
"_edit_use_anchors_": false
}

[node name="AnimationPlayer" type="AnimationPlayer" parent="."]
autoplay = "default"
anims/default = SubResource( 2 )
