[gd_scene load_steps=5 format=2]

[ext_resource path="res://Treadmill.tscn" type="PackedScene" id=1]
[ext_resource path="res://TreadmillWithMachine.gd" type="Script" id=2]

[sub_resource type="ViewportTexture" id=1]
viewport_path = NodePath("Viewport")

[sub_resource type="SpatialMaterial" id=2]
resource_local_to_scene = true
flags_transparent = true
flags_unshaded = true
albedo_texture = SubResource( 1 )

[node name="TreadmillWithMachine" instance=ExtResource( 1 )]
script = ExtResource( 2 )
input = true

[node name="treadmill" parent="." index="0"]
transform = Transform( 1, 0, 1.74846e-07, 0, 1, 0, -1.74846e-07, 0, 1, 0, 0, 0 )

[node name="MeshLabel" parent="." index="5"]
transform = Transform( 1, 0, 0, 0, -4.37114e-08, 1, 0, -1, -4.37114e-08, 0, 0.125981, -5.18502 )
material/0 = SubResource( 2 )
